\relax 
\catcode `"\active 
\citation{conceito:2017}
\citation{sebraemercados:2017}
\select@language{brazil}
\@writefile{toc}{\select@language{brazil}}
\@writefile{lof}{\select@language{brazil}}
\@writefile{lot}{\select@language{brazil}}
\@writefile{toc}{\contentsline {section}{\numberline {1}Introdu\IeC {\c c}\IeC {\~a}o}{1}}
\citation{conceito:2017}
\citation{albertin:2010}
\citation{sebraemercados:2017}
\citation{Ecommercebrasil:2017}
\citation{extra:2017}
\citation{epoca:2017}
\citation{3dtotal:2017}
\citation{bell:2014}
\@writefile{toc}{\contentsline {subsection}{\numberline {1.1}Defini\IeC {\c c}\IeC {\~a}o do problema e justificativa}{2}}
\newlabel{sec:firstpage}{{1.1}{2}}
\newlabel{sec:figs}{{1.1}{2}}
\citation{tecmundo:2013}
\citation{tecmundo:2013}
\citation{shapeways:2017}
\citation{materialise:2017}
\citation{3dprintingreviews:2013}
\citation{Lojanama:2017}
\@writefile{toc}{\contentsline {section}{\numberline {2}Objetivos}{3}}
\@writefile{toc}{\contentsline {section}{\numberline {3}Fundamenta\IeC {\c c}\IeC {\~a}o Te\IeC {\'o}rica e Trabalhos Relacionados}{3}}
\@writefile{lof}{\contentsline {figure}{\numberline {1}{\ignorespaces Tela de identifica\IeC {\c c}\IeC {\~a}o de pre\IeC {\c c}os do site da Loja Nama.}}{4}}
\newlabel{fig:exampleFig1}{{1}{4}}
\@writefile{lof}{\contentsline {figure}{\numberline {2}{\ignorespaces Tela de identifica\IeC {\c c}\IeC {\~a}o do conte\IeC {\'u}do no rodap\IeC {\'e} do site.}}{4}}
\newlabel{fig:exampleFig2}{{2}{4}}
\citation{pressman:2016}
\citation{sommerville:2011}
\@writefile{toc}{\contentsline {section}{\numberline {4}Projeto do software}{5}}
\@writefile{toc}{\contentsline {subsection}{\numberline {4.1}Requisitos Funcionais}{5}}
\citation{leidoecommerce:2017}
\citation{sommerville:2011}
\citation{dooley:2011}
\citation{dooley:2011}
\@writefile{toc}{\contentsline {subsection}{\numberline {4.2}Requisitos N\IeC {\~a}o Funcionais}{7}}
\@writefile{toc}{\contentsline {subsubsection}{\numberline {4.2.1}Arquitetura}{7}}
\citation{dooley:2011}
\citation{gabardo:2015}
\citation{gabardo:2015}
\citation{novak:2014}
\citation{guedes:2011}
\citation{guedes:2011}
\@writefile{toc}{\contentsline {subsubsection}{\numberline {4.2.2}Modelagem do sistema}{8}}
\citation{sommerville:2011}
\@writefile{toc}{\contentsline {paragraph}{Diagrama casos de uso}{9}}
\@writefile{lof}{\contentsline {figure}{\numberline {3}{\ignorespaces Diagrama casos de uso.}}{9}}
\newlabel{fig:exampleFig3}{{3}{9}}
\@writefile{toc}{\contentsline {paragraph}{Diagrama de classe}{9}}
\@writefile{lof}{\contentsline {figure}{\numberline {4}{\ignorespaces Diagrama de classe.}}{10}}
\newlabel{fig:exampleFig4}{{4}{10}}
\citation{sistemabd:2006}
\citation{ihc:2017}
\@writefile{toc}{\contentsline {subsubsection}{\numberline {4.2.3}Modelagem de dados}{11}}
\newlabel{sec:figs}{{4.2.3}{11}}
\@writefile{lof}{\contentsline {figure}{\numberline {5}{\ignorespaces Modelo Conceitual do banco de dados.}}{11}}
\newlabel{fig:exampleFig5}{{5}{11}}
\@writefile{toc}{\contentsline {subsubsection}{\numberline {4.2.4}Interface com usu\IeC {\'a}rio}{12}}
\@writefile{lof}{\contentsline {figure}{\numberline {6}{\ignorespaces Front-end do site 3DHouse.}}{12}}
\newlabel{fig:exampleFig6}{{6}{12}}
\@writefile{lof}{\contentsline {figure}{\numberline {7}{\ignorespaces Rodap\IeC {\'e} do site 3DHouse.}}{13}}
\newlabel{fig:exampleFig7}{{7}{13}}
\@writefile{lof}{\contentsline {figure}{\numberline {8}{\ignorespaces Portf\IeC {\'o}lio de produtos em destaque.}}{13}}
\newlabel{fig:exampleFig8}{{8}{13}}
\@writefile{lof}{\contentsline {figure}{\numberline {9}{\ignorespaces Portf\IeC {\'o}lio de produtos em destaque.}}{14}}
\newlabel{fig:exampleFig9}{{9}{14}}
\@writefile{lof}{\contentsline {figure}{\numberline {10}{\ignorespaces Ficha t\IeC {\'e}cnica do produto.}}{15}}
\newlabel{fig:exampleFig10}{{10}{15}}
\@writefile{toc}{\contentsline {subsubsection}{\numberline {4.2.5}Seguran\IeC {\c c}a}{15}}
\@writefile{toc}{\contentsline {subsubsection}{\numberline {4.2.6}Tecnologias utilizadas}{16}}
\@writefile{lof}{\contentsline {figure}{\numberline {11}{\ignorespaces Tecnologias utilizadas.}}{16}}
\newlabel{fig:exampleFig11}{{11}{16}}
\@writefile{toc}{\contentsline {section}{\numberline {5}Considera\IeC {\c c}\IeC {\~o}es finais}{16}}
\bibstyle{sbc}
\bibdata{sbc-template}
\bibcite{3dprintingreviews:2013}{3DPRINTINGREVIEWS 2013}
\bibcite{3dtotal:2017}{3DTOTAL 2017}
\bibcite{albertin:2010}{ALBERTIN 2010}
\bibcite{bell:2014}{BELL 2014}
\bibcite{leidoecommerce:2017}{BRASIL 2013}
\@writefile{toc}{\contentsline {section}{\numberline {6}Trabalhos futuros}{17}}
\bibcite{conceito:2017}{CONCEITOS 2017}
\bibcite{dooley:2011}{DOOLEY 2011}
\bibcite{gabardo:2015}{GABARDO 2015}
\bibcite{guedes:2011}{GUEDES 2011}
\bibcite{materialise:2017}{MATERIALISE 2017}
\bibcite{Lojanama:2017}{NAMA 2017}
\bibcite{Ecommercebrasil:2017}{NIERO 2017}
\bibcite{novak:2014}{NOVAK 2014}
\bibcite{epoca:2017}{O~GLOBO 2017}
\bibcite{ihc:2017}{PREECE 2013}
\bibcite{pressman:2016}{PRESSMAN 2016}
\bibcite{extra:2017}{RIBEIRO 2017}
\bibcite{tecmundo:2013}{ROCHA 2013}
\bibcite{sebraemercados:2017}{SEBRAE 2017}
\bibcite{shapeways:2017}{SHAPEWAYS 2017}
\bibcite{sistemabd:2006}{SILBERSCHATZ et~al. 2006}
\bibcite{sommerville:2011}{SOMMERVILLE et~al. 2011}
